%YAML 1.1
%TAG !u! tag:unity3d.com,2011:
--- !u!1045 &1
EditorBuildSettings:
  m_ObjectHideFlags: 0
  serializedVersion: 2
  m_Scenes:
  - enabled: 1
    path: Assets/Scenes/MainScene.unity
    guid: 210ec93df909e444688a700da6bb2676
  - enabled: 1
    path: Assets/Scenes/Level1.unity
    guid: 86d40b568c617fe4c9d4d5d03daebb02
  - enabled: 1
    path: Assets/Scenes/Endgame.unity
    guid: 67a606596e5904a488c701bae8b5584a
  m_configObjects: {}
